
<svg width="29px" height="18px" viewBox="0 0 29 18" version="1.1" xmlns="http://www.w3.org/2000/svg" xmlns:xlink="http://www.w3.org/1999/xlink">
    <!-- Generator: Sketch 51.3 (57544) - http://www.bohemiancoding.com/sketch -->
    <desc>Created with Sketch.</desc>
    <defs></defs>
    <g id="Desktop" stroke="none" stroke-width="1" fill="none" fill-rule="evenodd">
        <g id="Desktop_Landing_Page" transform="translate(-984.000000, -26.000000)" fill="#252525">
            <g id="Group-4" transform="translate(984.000000, 26.000000)">
                <rect id="Rectangle-3" x="0" y="15.75" width="28.125" height="1.6875"></rect>
                <rect id="Rectangle-3" x="0" y="0" width="28.125" height="1.6875"></rect>
                <rect id="Rectangle-3" x="0" y="7.875" width="28.125" height="1.6875"></rect>
            </g>
        </g>
    </g>
</svg>